[17:15:54] [INFO ]  	
[17:15:54] [INFO ]  ------------------------------------------
[17:15:54] [INFO ]  Running all 3 measurements of the silicon! :)
[17:15:54] [INFO ]  ------------------------------------------
[17:15:54] [INFO ]  Measurement of a dummy I-V curve. 
[17:15:54] [INFO ]  	
[17:15:54] [INFO ]  Start date          : 2023/11/23 17:15:54
[17:15:54] [INFO ]  User                : hgsensor
[17:15:54] [INFO ]  Host                : pcdttp02
[17:15:54] [INFO ]  Identifier          : Strip_E1_173_m20C_30kGy
[17:15:54] [INFO ]  Log will be stored to logs/Strip_E1_173_m20C_30kGy/00_20231123_171554/log.txt
[17:15:54] [INFO ]  	
[17:15:54] [INFO ]  Initialising device.
[17:15:54] [INFO ]  KEITHLEY INSTRUMENTS INC.,MODEL 2410,4005154,C32   Oct  4 2010 14:20:11/A02  /J/K

[17:15:54] [INFO ]  Initialising device.
[17:15:54] [INFO ]  KEITHLEY INSTRUMENTS INC.,MODEL 2410,4354538,C34 Sep 21 2016 15:30:00/A02  /K/M

[17:15:54] [INFO ]  Initialising device.
[17:15:54] [INFO ]  KEITHLEY INSTRUMENTS INC.,MODEL 7001,1293707,A10  /A02  

[17:15:54] [INFO ]  Reseting device.
[17:15:54] [INFO ]  Initialising device.
[17:15:54] [INFO ]  Agilent Technologies,E4980A,MY46414370,A.06.15

[17:15:54] [INFO ]  Initialising device.
[17:15:54] [INFO ]  KEITHLEY INSTRUMENTS INC.,MODEL 6487,1335907,B02   Sep 08 2010 12:47:38/A02  /C/G

[17:15:55] [INFO ]  CV Sweep

[17:15:55] [INFO ]  Measurement Settings:
[17:15:55] [INFO ]  Power Supply voltage limit:      2.10E+01 V
[17:15:55] [INFO ]  Power Supply current limit:      1.00E-04 A
[17:15:55] [INFO ]  LCR measurement voltage:         5.00E-01 V
[17:15:55] [INFO ]  LCR measurement frequency:       1.00E+03 Hz
[17:15:55] [INFO ]  Voltage Delay:                      10.00 s
[17:15:55] [INFO ]  Nominal Voltage [V]	 Measured Voltage [V]	Freq [Hz]	R [Ohm]	R_Err [Ohm]	X [Ohm]	X_Err [Ohm]	Cs [F]	Cp [F]	Total Current [A]
[17:15:55] [INFO ]  

STARTING CV SCAN...


[17:16:18] [INFO ]  Reseting device.
[17:16:19] [INFO ]  Nominal Voltage [V]	 Measured Voltage [V]	Freq [Hz]	R [Ohm]	R_Err [Ohm]	X [Ohm]	X_Err [Ohm]	Cs [F]	Cp [F]	Total Current [A]
[17:16:42] [INFO ]  -1.00E+02	-1.00E+02	1.00E+04	6.17E+07	6.37E+00	-3.06E+05	9.53E+00	5.199E-11	5.199E-11	-5.78E-09
[17:16:57] [INFO ]  -1.00E+02	-1.00E+02	1.00E+05	2.61E+06	9.18E-02	-3.10E+04	1.71E-01	5.136E-11	5.136E-11	-4.94E-09
[17:17:09] [INFO ]  -1.00E+02	-1.00E+02	1.00E+06	3.42E+05	5.63E-03	-3.15E+03	1.09E-02	5.047E-11	5.047E-11	-4.86E-09
[17:17:28] [INFO ]  -1.50E+02	-1.50E+02	1.00E+04	5.01E+07	7.45E+00	-3.06E+05	7.64E+00	5.201E-11	5.201E-11	-5.25E-09
[17:17:42] [INFO ]  -1.50E+02	-1.50E+02	1.00E+05	2.81E+06	4.67E-02	-3.11E+04	4.57E-02	5.124E-11	5.123E-11	-5.53E-09
[17:17:55] [INFO ]  -1.50E+02	-1.50E+02	1.00E+06	3.66E+05	6.21E-03	-3.15E+03	9.57E-03	5.053E-11	5.052E-11	-5.49E-09
[17:18:13] [INFO ]  -2.00E+02	-2.00E+02	1.00E+04	4.24E+07	4.40E+00	-3.06E+05	6.66E+00	5.199E-11	5.199E-11	-5.86E-09
[17:18:27] [INFO ]  -2.00E+02	-2.00E+02	1.00E+05	3.19E+06	7.48E-02	-3.11E+04	7.51E-02	5.115E-11	5.115E-11	-5.95E-09
[17:18:40] [INFO ]  -2.00E+02	-2.00E+02	1.00E+06	3.80E+05	9.97E-03	-3.15E+03	9.49E-03	5.056E-11	5.056E-11	-5.92E-09
[17:18:58] [INFO ]  -2.50E+02	-2.50E+02	1.00E+04	3.73E+07	9.61E+00	-3.06E+05	3.64E+00	5.195E-11	5.195E-11	-7.69E-09
[17:19:11] [INFO ]  -2.50E+02	-2.50E+02	1.00E+05	3.63E+06	6.98E-02	-3.11E+04	4.20E-02	5.111E-11	5.111E-11	-7.46E-09
[17:19:25] [INFO ]  -2.50E+02	-2.50E+02	1.00E+06	3.90E+05	1.28E-02	-3.15E+03	1.23E-02	5.059E-11	5.058E-11	-7.40E-09
[17:19:43] [INFO ]  -3.00E+02	-3.00E+02	1.00E+04	3.35E+07	8.04E+00	-3.07E+05	8.97E+00	5.190E-11	5.190E-11	-4.21E-08
[17:19:56] [INFO ]  -3.00E+02	-3.00E+02	1.00E+05	4.08E+06	5.42E-02	-3.12E+04	6.13E-02	5.108E-11	5.108E-11	-3.59E-08
[17:20:10] [INFO ]  -3.00E+02	-3.00E+02	1.00E+06	3.99E+05	8.81E-03	-3.15E+03	9.30E-03	5.060E-11	5.060E-11	-3.19E-08
[17:20:29] [INFO ]  -3.50E+02	-3.50E+02	1.00E+04	3.13E+07	1.01E+01	-3.07E+05	6.38E+00	5.182E-11	5.182E-11	-2.18E-07
[17:20:41] [INFO ]  -3.50E+02	-3.50E+02	1.00E+05	4.61E+06	5.14E-02	-3.12E+04	9.21E-02	5.104E-11	5.104E-11	-1.84E-07
[17:20:55] [INFO ]  -3.50E+02	-3.50E+02	1.00E+06	4.10E+05	6.48E-03	-3.15E+03	8.51E-03	5.060E-11	5.059E-11	-1.65E-07
[17:21:14] [INFO ]  -4.00E+02	-4.00E+02	1.00E+04	2.98E+07	9.78E+00	-3.08E+05	7.87E+00	5.173E-11	5.172E-11	-4.95E-07
[17:21:27] [INFO ]  -4.00E+02	-4.00E+02	1.00E+05	5.20E+06	6.43E-02	-3.12E+04	5.69E-02	5.101E-11	5.101E-11	-4.51E-07
[17:21:40] [INFO ]  -4.00E+02	-4.00E+02	1.00E+06	4.21E+05	4.55E-03	-3.15E+03	9.17E-03	5.059E-11	5.059E-11	-4.19E-07
[17:21:59] [INFO ]  -4.50E+02	-4.50E+02	1.00E+04	2.91E+07	8.29E+00	-3.08E+05	9.07E+00	5.162E-11	5.162E-11	-8.59E-07
[17:22:12] [INFO ]  -4.50E+02	-4.50E+02	1.00E+05	5.84E+06	6.75E-02	-3.12E+04	7.62E-02	5.099E-11	5.098E-11	-8.14E-07
[17:22:26] [INFO ]  -4.50E+02	-4.50E+02	1.00E+06	4.31E+05	6.90E-03	-3.15E+03	9.61E-03	5.059E-11	5.059E-11	-7.77E-07
[17:22:44] [INFO ]  -5.00E+02	-5.00E+02	1.00E+04	2.91E+07	1.01E+01	-3.09E+05	7.61E+00	5.150E-11	5.150E-11	-1.31E-06
[17:22:57] [INFO ]  -5.00E+02	-5.00E+02	1.00E+05	6.51E+06	7.11E-02	-3.12E+04	6.33E-02	5.097E-11	5.097E-11	-1.25E-06
[17:23:11] [INFO ]  -5.00E+02	-5.00E+02	1.00E+06	4.41E+05	8.84E-03	-3.15E+03	9.84E-03	5.059E-11	5.059E-11	-1.22E-06
[17:23:30] [INFO ]  -5.50E+02	-5.50E+02	1.00E+04	3.02E+07	9.28E+00	-3.10E+05	8.20E+00	5.140E-11	5.140E-11	-1.76E-06
[17:23:43] [INFO ]  -5.50E+02	-5.50E+02	1.00E+05	7.22E+06	6.36E-02	-3.12E+04	1.00E-01	5.095E-11	5.095E-11	-1.72E-06
[17:23:57] [INFO ]  -5.50E+02	-5.50E+02	1.00E+06	4.48E+05	1.12E-02	-3.15E+03	1.27E-02	5.059E-11	5.059E-11	-1.69E-06
[17:24:15] [INFO ]  -6.00E+02	-6.00E+02	1.00E+04	3.21E+07	9.66E+00	-3.10E+05	5.90E+00	5.132E-11	5.132E-11	-2.28E-06
[17:24:28] [INFO ]  -6.00E+02	-6.00E+02	1.00E+05	7.95E+06	4.20E-02	-3.12E+04	4.52E-02	5.093E-11	5.093E-11	-2.23E-06
[17:24:42] [INFO ]  -6.00E+02	-6.00E+02	1.00E+06	4.55E+05	9.24E-03	-3.15E+03	6.85E-03	5.059E-11	5.059E-11	-2.20E-06
[17:25:00] [INFO ]  -6.50E+02	-6.50E+02	1.00E+04	3.46E+07	4.60E+00	-3.11E+05	8.91E+00	5.124E-11	5.124E-11	-2.84E-06
[17:25:13] [INFO ]  -6.50E+02	-6.50E+02	1.00E+05	8.72E+06	7.23E-02	-3.13E+04	1.10E-01	5.092E-11	5.092E-11	-2.81E-06
[17:25:27] [INFO ]  -6.50E+02	-6.50E+02	1.00E+06	4.60E+05	1.09E-02	-3.15E+03	9.57E-03	5.059E-11	5.059E-11	-2.77E-06
[17:25:45] [INFO ]  -7.00E+02	-7.00E+02	1.00E+04	3.77E+07	6.07E+00	-3.11E+05	6.20E+00	5.118E-11	5.117E-11	-3.46E-06
[17:25:58] [INFO ]  -7.00E+02	-7.00E+02	1.00E+05	9.56E+06	8.25E-02	-3.13E+04	6.36E-02	5.091E-11	5.091E-11	-3.43E-06
[17:26:12] [INFO ]  -7.00E+02	-7.00E+02	1.00E+06	4.65E+05	1.19E-02	-3.15E+03	1.06E-02	5.059E-11	5.059E-11	-3.41E-06
[17:26:30] [INFO ]  -7.50E+02	-7.50E+02	1.00E+04	4.18E+07	6.38E+00	-3.11E+05	5.64E+00	5.113E-11	5.113E-11	-4.16E-06
[17:26:43] [INFO ]  -7.50E+02	-7.50E+02	1.00E+05	1.04E+07	5.98E-02	-3.13E+04	8.65E-02	5.091E-11	5.091E-11	-4.15E-06
[17:26:57] [INFO ]  -7.50E+02	-7.50E+02	1.00E+06	4.68E+05	9.73E-03	-3.15E+03	1.48E-02	5.059E-11	5.059E-11	-4.13E-06
[17:27:15] [INFO ]  -8.00E+02	-8.00E+02	1.00E+04	4.55E+07	9.32E+00	-3.12E+05	7.19E+00	5.109E-11	5.109E-11	-4.96E-06
[17:27:28] [INFO ]  -8.00E+02	-8.00E+02	1.00E+05	1.13E+07	5.34E-02	-3.13E+04	9.70E-02	5.090E-11	5.090E-11	-4.91E-06
[17:27:42] [INFO ]  -8.00E+02	-8.00E+02	1.00E+06	4.70E+05	1.30E-02	-3.15E+03	1.47E-02	5.059E-11	5.059E-11	-4.89E-06
[17:28:00] [INFO ]  -8.50E+02	-8.50E+02	1.00E+04	5.06E+07	6.46E+00	-3.12E+05	5.97E+00	5.105E-11	5.105E-11	-5.79E-06
[17:28:13] [INFO ]  -8.50E+02	-8.50E+02	1.00E+05	1.21E+07	4.96E-02	-3.13E+04	8.63E-02	5.090E-11	5.090E-11	-5.75E-06
[17:28:27] [INFO ]  -8.50E+02	-8.50E+02	1.00E+06	4.72E+05	1.05E-02	-3.15E+03	9.92E-03	5.059E-11	5.059E-11	-5.72E-06
[17:28:45] [INFO ]  -9.00E+02	-9.00E+02	1.00E+04	5.57E+07	6.94E+00	-3.12E+05	6.08E+00	5.102E-11	5.102E-11	-6.69E-06
[17:28:58] [INFO ]  -9.00E+02	-9.00E+02	1.00E+05	1.30E+07	6.54E-02	-3.13E+04	6.70E-02	5.090E-11	5.090E-11	-6.64E-06
[17:29:12] [INFO ]  -9.00E+02	-9.00E+02	1.00E+06	4.74E+05	8.01E-03	-3.15E+03	1.46E-02	5.059E-11	5.059E-11	-6.57E-06
[17:31:07] [INFO ]  Reseting device.
[17:31:10] [INFO ]  Saving output to file logs/Strip_E1_173_m20C_30kGy/00_20231123_171554/10KHz_cv_Strip_E1_173_m20C_30kGy_Test_name.dat
[17:31:10] [INFO ]  Saving output to file logs/Strip_E1_173_m20C_30kGy/00_20231123_171554/100KHz_cv_Strip_E1_173_m20C_30kGy_Test_name.dat
[17:31:10] [INFO ]  Saving output to file logs/Strip_E1_173_m20C_30kGy/00_20231123_171554/1MHz_cv_Strip_E1_173_m20C_30kGy_Test_name.dat
[17:31:10] [INFO ]  

 CV SCAN FINISHED


[17:31:10] [INFO ]  

STARTING IV SCAN...


[17:31:33] [INFO ]  Reseting device.
[17:31:33] [INFO ]  Nominal Voltage [V]	 Measured Voltage [V]	Total current [A]	IS nominal voltage[V]	IS measured voltage[V]	IS current [A]	IS current Error [A]	Ramping PS current[A]
[17:33:01] [INFO ]  -2.00E+02	-2.000E+02	-6.257E-09	-1.00E+00	-1.000E+00	-1.842E-10	4.128E-13	6.177E-11
[17:33:38] [INFO ]  -2.00E+02	-2.000E+02	-5.572E-09	-8.00E-01	-8.000E-01	-1.778E-10	4.414E-13	2.004E-10
[17:34:15] [INFO ]  -2.00E+02	-2.000E+02	-5.606E-09	-6.00E-01	-6.000E-01	-1.736E-10	1.112E-12	1.397E-10
[17:34:52] [INFO ]  -2.00E+02	-2.000E+02	-5.253E-09	-4.00E-01	-4.000E-01	-1.696E-10	5.251E-13	1.772E-10
[17:35:29] [INFO ]  -2.00E+02	-2.000E+02	-5.051E-09	-2.00E-01	-2.000E-01	-1.671E-10	3.022E-13	1.206E-10
[17:36:06] [INFO ]  -2.00E+02	-2.000E+02	-5.357E-09	-2.22E-16	2.213E-05	-1.623E-10	2.638E-13	1.027E-10
[17:36:42] [INFO ]  -2.00E+02	-2.000E+02	-4.897E-09	2.00E-01	2.000E-01	-1.598E-10	3.066E-13	1.857E-10
[17:37:20] [INFO ]  -2.00E+02	-2.000E+02	-4.770E-09	4.00E-01	4.000E-01	-1.551E-10	4.420E-13	2.224E-10
[17:37:56] [INFO ]  -2.00E+02	-2.000E+02	-4.741E-09	6.00E-01	6.000E-01	-1.520E-10	6.784E-13	5.017E-11
[17:38:33] [INFO ]  -2.00E+02	-2.000E+02	-4.948E-09	8.00E-01	8.000E-01	-1.494E-10	4.128E-13	3.836E-11
[17:39:11] [INFO ]  -2.00E+02	-2.000E+02	-4.743E-09	1.00E+00	1.000E+00	-1.480E-10	3.215E-13	9.479E-11
[17:39:54] [INFO ]  Saving output to file logs/Strip_E1_173_m20C_30kGy/00_20231123_171554/iv_Strip_E1_173_m20C_30kGy_Test_name_-200_V.dat
[17:39:55] [INFO ]  Elapsed time:
[17:39:55] [INFO ]  501.9370582103729
[17:41:12] [INFO ]  -3.00E+02	-3.000E+02	-6.435E-09	-1.00E+00	-1.000E+00	-1.690E-10	2.878E-13	1.012E-10
[17:41:49] [INFO ]  -3.00E+02	-3.000E+02	-6.220E-09	-8.00E-01	-8.000E-01	-1.687E-10	3.945E-13	6.004E-11
[17:42:26] [INFO ]  -3.00E+02	-3.000E+02	-6.142E-09	-6.00E-01	-6.000E-01	-1.681E-10	3.598E-13	9.760E-11
[17:43:03] [INFO ]  -3.00E+02	-3.000E+02	-6.246E-09	-4.00E-01	-4.000E-01	-1.660E-10	3.841E-13	1.150E-10
[17:43:40] [INFO ]  -3.00E+02	-3.000E+02	-6.079E-09	-2.00E-01	-2.000E-01	-1.645E-10	5.452E-13	5.554E-11
[17:44:17] [INFO ]  -3.00E+02	-3.000E+02	-6.090E-09	-2.22E-16	2.023E-05	-1.629E-10	6.203E-13	9.830E-11
[17:44:54] [INFO ]  -3.00E+02	-3.000E+02	-6.168E-09	2.00E-01	2.000E-01	-1.605E-10	3.089E-13	1.030E-10
[17:45:32] [INFO ]  -3.00E+02	-3.000E+02	-6.161E-09	4.00E-01	4.000E-01	-1.578E-10	5.179E-13	1.864E-10
[17:46:09] [INFO ]  -3.00E+02	-3.000E+02	-6.011E-09	6.00E-01	6.000E-01	-1.549E-10	6.580E-13	9.843E-11
[17:46:45] [INFO ]  -3.00E+02	-3.000E+02	-5.644E-09	8.00E-01	8.000E-01	-1.540E-10	6.452E-13	4.117E-11
[17:47:22] [INFO ]  -3.00E+02	-3.000E+02	-5.977E-09	1.00E+00	1.000E+00	-1.518E-10	6.787E-13	1.226E-10
[17:48:06] [INFO ]  Saving output to file logs/Strip_E1_173_m20C_30kGy/00_20231123_171554/iv_Strip_E1_173_m20C_30kGy_Test_name_-300_V.dat
[17:48:07] [INFO ]  Elapsed time:
[17:48:07] [INFO ]  491.84468960762024
[17:49:24] [INFO ]  -4.00E+02	-4.000E+02	-4.850E-08	-1.00E+00	-1.000E+00	-1.617E-10	3.572E-13	1.701E-10
[17:50:01] [INFO ]  -4.00E+02	-4.000E+02	-4.657E-08	-8.00E-01	-8.000E-01	-1.593E-10	3.454E-13	2.115E-10
[17:50:38] [INFO ]  -4.00E+02	-4.000E+02	-4.542E-08	-6.00E-01	-6.000E-01	-1.585E-10	3.820E-13	1.583E-10
[17:51:15] [INFO ]  -4.00E+02	-4.000E+02	-4.376E-08	-4.00E-01	-4.000E-01	-1.582E-10	3.867E-13	-3.875E-11
[17:51:52] [INFO ]  -4.00E+02	-4.000E+02	-4.261E-08	-2.00E-01	-2.000E-01	-1.584E-10	3.801E-13	2.252E-10
[17:52:29] [INFO ]  -4.00E+02	-4.000E+02	-4.206E-08	-2.22E-16	2.237E-05	-1.609E-10	7.276E-13	1.669E-11
[17:53:07] [INFO ]  -4.00E+02	-4.000E+02	-4.185E-08	2.00E-01	2.000E-01	-1.616E-10	3.327E-13	8.225E-11
[17:53:45] [INFO ]  -4.00E+02	-4.000E+02	-4.067E-08	4.00E-01	4.000E-01	-1.601E-10	3.237E-13	3.419E-11
[17:54:21] [INFO ]  -4.00E+02	-4.000E+02	-3.969E-08	6.00E-01	6.000E-01	-1.592E-10	3.271E-13	2.443E-10
[17:54:59] [INFO ]  -4.00E+02	-4.000E+02	-3.930E-08	8.00E-01	8.000E-01	-1.577E-10	7.216E-13	8.556E-12
[17:55:35] [INFO ]  -4.00E+02	-4.000E+02	-3.801E-08	1.00E+00	1.000E+00	-1.541E-10	4.056E-13	1.043E-10
[17:56:19] [INFO ]  Saving output to file logs/Strip_E1_173_m20C_30kGy/00_20231123_171554/iv_Strip_E1_173_m20C_30kGy_Test_name_-400_V.dat
[17:56:19] [INFO ]  Elapsed time:
[17:56:19] [INFO ]  492.4286513328552
[17:57:36] [INFO ]  -5.00E+02	-5.000E+02	-4.455E-07	-1.00E+00	-1.000E+00	-1.621E-10	5.322E-13	-7.215E-11
[17:58:13] [INFO ]  -5.00E+02	-5.000E+02	-4.293E-07	-8.00E-01	-8.000E-01	-1.594E-10	8.102E-13	4.645E-11
[17:58:50] [INFO ]  -5.00E+02	-5.000E+02	-4.174E-07	-6.00E-01	-6.000E-01	-1.583E-10	4.691E-13	1.187E-10
[17:59:27] [INFO ]  -5.00E+02	-5.000E+02	-4.061E-07	-4.00E-01	-4.000E-01	-1.572E-10	7.978E-13	1.555E-10
[18:00:03] [INFO ]  -5.00E+02	-5.000E+02	-3.992E-07	-2.00E-01	-2.000E-01	-1.574E-10	3.182E-13	2.062E-10
[18:00:40] [INFO ]  -5.00E+02	-5.000E+02	-3.963E-07	-2.22E-16	2.337E-05	-1.576E-10	4.538E-13	1.496E-10
[18:01:18] [INFO ]  -5.00E+02	-5.000E+02	-3.940E-07	2.00E-01	2.000E-01	-1.597E-10	6.387E-13	9.030E-11
[18:01:55] [INFO ]  -5.00E+02	-5.000E+02	-3.900E-07	4.00E-01	4.000E-01	-1.619E-10	3.150E-13	2.229E-10
[18:02:32] [INFO ]  -5.00E+02	-5.000E+02	-3.845E-07	6.00E-01	6.000E-01	-1.627E-10	5.763E-13	9.277E-11
[18:03:08] [INFO ]  -5.00E+02	-5.000E+02	-3.756E-07	8.00E-01	8.000E-01	-1.612E-10	5.162E-13	2.612E-10
[18:03:46] [INFO ]  -5.00E+02	-5.000E+02	-3.685E-07	1.00E+00	1.000E+00	-1.601E-10	4.204E-13	2.626E-10
[18:04:29] [INFO ]  Saving output to file logs/Strip_E1_173_m20C_30kGy/00_20231123_171554/iv_Strip_E1_173_m20C_30kGy_Test_name_-500_V.dat
[18:04:30] [INFO ]  Elapsed time:
[18:04:30] [INFO ]  490.6950957775116
[18:05:47] [INFO ]  -6.00E+02	-6.000E+02	-1.123E-06	-1.00E+00	-1.000E+00	-1.673E-10	8.526E-13	9.822E-11
[18:06:24] [INFO ]  -6.00E+02	-6.000E+02	-1.072E-06	-8.00E-01	-8.000E-01	-1.653E-10	1.091E-12	9.537E-11
[18:07:01] [INFO ]  -6.00E+02	-6.000E+02	-1.039E-06	-6.00E-01	-6.000E-01	-1.632E-10	7.105E-13	6.152E-11
[18:07:38] [INFO ]  -6.00E+02	-6.000E+02	-1.009E-06	-4.00E-01	-4.000E-01	-1.611E-10	6.292E-13	2.441E-10
[18:08:15] [INFO ]  -6.00E+02	-6.000E+02	-9.872E-07	-2.00E-01	-2.000E-01	-1.587E-10	5.882E-13	9.513E-11
[18:08:51] [INFO ]  -6.00E+02	-6.000E+02	-9.741E-07	-2.22E-16	2.163E-05	-1.584E-10	7.069E-13	1.295E-10
[18:09:28] [INFO ]  -6.00E+02	-6.000E+02	-9.638E-07	2.00E-01	2.000E-01	-1.586E-10	5.517E-13	2.000E-10
[18:10:05] [INFO ]  -6.00E+02	-6.000E+02	-9.661E-07	4.00E-01	4.000E-01	-1.605E-10	5.697E-13	1.086E-10
[18:10:42] [INFO ]  -6.00E+02	-6.000E+02	-9.630E-07	6.00E-01	6.000E-01	-1.617E-10	6.096E-13	1.453E-10
[18:11:19] [INFO ]  -6.00E+02	-6.000E+02	-9.576E-07	8.00E-01	8.000E-01	-1.627E-10	3.364E-13	1.664E-10
[18:11:56] [INFO ]  -6.00E+02	-6.000E+02	-9.560E-07	1.00E+00	1.000E+00	-1.638E-10	3.035E-13	3.413E-10
[18:12:39] [INFO ]  Saving output to file logs/Strip_E1_173_m20C_30kGy/00_20231123_171554/iv_Strip_E1_173_m20C_30kGy_Test_name_-600_V.dat
[18:12:40] [INFO ]  Elapsed time:
[18:12:40] [INFO ]  489.75882625579834
[18:13:57] [INFO ]  -7.00E+02	-7.000E+02	-2.016E-06	-1.00E+00	-1.000E+00	-1.799E-10	6.821E-13	2.191E-10
[18:14:34] [INFO ]  -7.00E+02	-7.000E+02	-1.891E-06	-8.00E-01	-8.000E-01	-1.785E-10	6.571E-13	2.133E-10
[18:15:10] [INFO ]  -7.00E+02	-7.000E+02	-1.851E-06	-6.00E-01	-6.000E-01	-1.764E-10	5.640E-13	3.419E-11
[18:15:48] [INFO ]  -7.00E+02	-7.000E+02	-1.812E-06	-4.00E-01	-4.000E-01	-1.745E-10	4.885E-13	9.496E-11
[18:16:25] [INFO ]  -7.00E+02	-7.000E+02	-1.785E-06	-2.00E-01	-2.000E-01	-1.710E-10	5.502E-13	1.652E-11
[18:17:03] [INFO ]  -7.00E+02	-7.000E+02	-1.743E-06	-2.22E-16	2.353E-05	-1.680E-10	5.154E-13	1.708E-10
[18:17:39] [INFO ]  -7.00E+02	-7.000E+02	-1.712E-06	2.00E-01	2.000E-01	-1.660E-10	6.008E-13	1.394E-10
[18:18:17] [INFO ]  -7.00E+02	-7.000E+02	-1.681E-06	4.00E-01	4.000E-01	-1.630E-10	3.130E-13	9.806E-11
[18:18:53] [INFO ]  -7.00E+02	-7.000E+02	-1.665E-06	6.00E-01	6.000E-01	-1.617E-10	3.879E-13	2.627E-11
[18:19:31] [INFO ]  -7.00E+02	-7.000E+02	-1.648E-06	8.00E-01	8.000E-01	-1.606E-10	5.811E-13	1.108E-10
[18:20:08] [INFO ]  -7.00E+02	-7.000E+02	-1.643E-06	1.00E+00	1.000E+00	-1.619E-10	4.659E-13	-5.527E-11
[18:20:52] [INFO ]  Saving output to file logs/Strip_E1_173_m20C_30kGy/00_20231123_171554/iv_Strip_E1_173_m20C_30kGy_Test_name_-700_V.dat
[18:20:52] [INFO ]  Elapsed time:
[18:20:52] [INFO ]  492.4156551361084
[18:22:10] [INFO ]  -8.00E+02	-8.000E+02	-2.750E-06	-1.00E+00	-1.000E+00	-1.806E-10	9.508E-13	7.318E-12
[18:22:46] [INFO ]  -8.00E+02	-8.000E+02	-2.726E-06	-8.00E-01	-8.000E-01	-1.796E-10	6.817E-13	3.035E-10
[18:23:24] [INFO ]  -8.00E+02	-8.000E+02	-2.707E-06	-6.00E-01	-6.000E-01	-1.792E-10	1.017E-12	2.286E-10
[18:24:01] [INFO ]  -8.00E+02	-7.999E+02	-2.680E-06	-4.00E-01	-4.000E-01	-1.782E-10	7.743E-13	7.903E-11
[18:24:38] [INFO ]  -8.00E+02	-7.999E+02	-2.664E-06	-2.00E-01	-2.000E-01	-1.786E-10	9.596E-13	2.131E-10
[18:25:14] [INFO ]  -8.00E+02	-8.000E+02	-2.630E-06	-2.22E-16	2.238E-05	-1.765E-10	3.819E-13	1.469E-10
[18:25:51] [INFO ]  -8.00E+02	-7.999E+02	-2.598E-06	2.00E-01	2.000E-01	-1.738E-10	8.651E-13	8.963E-11
[18:26:29] [INFO ]  -8.00E+02	-8.000E+02	-2.574E-06	4.00E-01	4.000E-01	-1.720E-10	4.832E-13	1.291E-10
[18:27:06] [INFO ]  -8.00E+02	-8.000E+02	-2.556E-06	6.00E-01	6.000E-01	-1.709E-10	4.471E-13	7.733E-11
[18:27:43] [INFO ]  -8.00E+02	-7.999E+02	-2.527E-06	8.00E-01	8.000E-01	-1.688E-10	3.595E-13	1.769E-10
[18:28:20] [INFO ]  -8.00E+02	-7.999E+02	-2.499E-06	1.00E+00	1.000E+00	-1.669E-10	5.344E-13	8.786E-11
[18:29:04] [INFO ]  Saving output to file logs/Strip_E1_173_m20C_30kGy/00_20231123_171554/iv_Strip_E1_173_m20C_30kGy_Test_name_-800_V.dat
[18:29:04] [INFO ]  Elapsed time:
[18:29:04] [INFO ]  492.1292653083801
[18:30:21] [INFO ]  -9.00E+02	-8.999E+02	-3.601E-06	-1.00E+00	-1.000E+00	-1.754E-10	5.575E-13	1.170E-10
[18:30:59] [INFO ]  -9.00E+02	-8.999E+02	-3.565E-06	-8.00E-01	-8.000E-01	-1.740E-10	9.203E-13	1.904E-10
[18:31:36] [INFO ]  -9.00E+02	-8.999E+02	-3.524E-06	-6.00E-01	-6.000E-01	-1.726E-10	5.584E-13	7.688E-11
[18:32:13] [INFO ]  -9.00E+02	-8.999E+02	-3.517E-06	-4.00E-01	-4.000E-01	-1.730E-10	2.938E-13	2.354E-10
[18:32:50] [INFO ]  -9.00E+02	-8.999E+02	-3.512E-06	-2.00E-01	-2.000E-01	-1.744E-10	5.263E-13	-3.281E-11
[18:33:27] [INFO ]  -9.00E+02	-8.999E+02	-3.544E-06	-2.22E-16	2.741E-05	-1.754E-10	3.407E-13	1.578E-10
[18:34:04] [INFO ]  -9.00E+02	-8.999E+02	-3.548E-06	2.00E-01	2.000E-01	-1.768E-10	9.850E-13	2.070E-10
[18:34:41] [INFO ]  -9.00E+02	-8.999E+02	-3.536E-06	4.00E-01	4.000E-01	-1.770E-10	6.083E-13	1.503E-10
[18:35:18] [INFO ]  -9.00E+02	-8.999E+02	-3.545E-06	6.00E-01	6.000E-01	-1.767E-10	7.146E-13	1.208E-10
[18:35:56] [INFO ]  -9.00E+02	-8.999E+02	-3.511E-06	8.00E-01	8.000E-01	-1.757E-10	3.662E-13	1.363E-11
[18:36:33] [INFO ]  -9.00E+02	-8.999E+02	-3.504E-06	1.00E+00	1.000E+00	-1.744E-10	4.447E-13	1.073E-10
[18:37:17] [INFO ]  Saving output to file logs/Strip_E1_173_m20C_30kGy/00_20231123_171554/iv_Strip_E1_173_m20C_30kGy_Test_name_-900_V.dat
[18:37:17] [INFO ]  Elapsed time:
[18:37:17] [INFO ]  492.9936773777008
[18:39:13] [INFO ]  Reseting device.
[18:39:13] [INFO ]  Saving output to file logs/Strip_E1_173_m20C_30kGy/00_20231123_171554/rv_Strip_E1_173_m20C_30kGy_Test_name.dat
[18:39:13] [INFO ]  

 IV SCAN FINISHED


[18:39:13] [INFO ]  	
[18:39:13] [INFO ]  Cleaning up.
[18:39:13] [INFO ]  	
[18:39:13] [INFO ]  	
