[09:24:12] [INFO ]  	
[09:24:12] [INFO ]  ------------------------------------------
[09:24:12] [INFO ]  Running all 3 measurements of the silicon! :)
[09:24:12] [INFO ]  ------------------------------------------
[09:24:12] [INFO ]  Measurement of a dummy I-V curve. 
[09:24:12] [INFO ]  	
[09:24:12] [INFO ]  Start date          : 2023/11/24 09:24:12
[09:24:12] [INFO ]  User                : hgsensor
[09:24:12] [INFO ]  Host                : pcdttp02
[09:24:12] [INFO ]  Identifier          : Strip_E1_173_m20C_200kGy
[09:24:12] [INFO ]  Log will be stored to logs/Strip_E1_173_m20C_200kGy/00_20231124_092412/log.txt
[09:24:12] [INFO ]  	
[09:24:13] [INFO ]  Initialising device.
[09:24:13] [INFO ]  KEITHLEY INSTRUMENTS INC.,MODEL 2410,4005154,C32   Oct  4 2010 14:20:11/A02  /J/K

[09:24:13] [INFO ]  Initialising device.
[09:24:13] [INFO ]  KEITHLEY INSTRUMENTS INC.,MODEL 2410,4354538,C34 Sep 21 2016 15:30:00/A02  /K/M

[09:24:13] [INFO ]  Initialising device.
[09:24:13] [INFO ]  KEITHLEY INSTRUMENTS INC.,MODEL 7001,1293707,A10  /A02  

[09:24:13] [INFO ]  Reseting device.
[09:24:13] [INFO ]  Initialising device.
[09:24:13] [INFO ]  Agilent Technologies,E4980A,MY46414370,A.06.15

[09:24:13] [INFO ]  Initialising device.
[09:24:13] [INFO ]  KEITHLEY INSTRUMENTS INC.,MODEL 6487,1335907,B02   Sep 08 2010 12:47:38/A02  /C/G

[09:24:13] [INFO ]  CV Sweep

[09:24:13] [INFO ]  Measurement Settings:
[09:24:13] [INFO ]  Power Supply voltage limit:      2.10E+01 V
[09:24:13] [INFO ]  Power Supply current limit:      1.00E-04 A
[09:24:13] [INFO ]  LCR measurement voltage:         5.00E-01 V
[09:24:13] [INFO ]  LCR measurement frequency:       1.00E+03 Hz
[09:24:13] [INFO ]  Voltage Delay:                      10.00 s
[09:24:13] [INFO ]  Nominal Voltage [V]	 Measured Voltage [V]	Freq [Hz]	R [Ohm]	R_Err [Ohm]	X [Ohm]	X_Err [Ohm]	Cs [F]	Cp [F]	Total Current [A]
[09:24:13] [INFO ]  

STARTING CV SCAN...


[09:24:37] [INFO ]  Reseting device.
[09:24:37] [INFO ]  Nominal Voltage [V]	 Measured Voltage [V]	Freq [Hz]	R [Ohm]	R_Err [Ohm]	X [Ohm]	X_Err [Ohm]	Cs [F]	Cp [F]	Total Current [A]
[09:25:00] [INFO ]  -1.00E+02	-1.00E+02	1.00E+04	3.83E+07	1.61E+01	-3.06E+05	1.34E+01	5.202E-11	5.202E-11	-4.71E-09
[09:25:15] [INFO ]  -1.00E+02	-1.00E+02	1.00E+05	2.82E+06	5.40E-02	-3.12E+04	7.22E-02	5.103E-11	5.102E-11	-4.08E-09
[09:25:27] [INFO ]  -1.00E+02	-1.00E+02	1.00E+06	4.23E+05	1.64E-02	-3.16E+03	8.77E-03	5.044E-11	5.044E-11	-3.75E-09
[09:25:46] [INFO ]  -1.50E+02	-1.50E+02	1.00E+04	3.24E+07	8.18E+00	-3.06E+05	5.99E+00	5.199E-11	5.199E-11	-6.73E-09
[09:25:59] [INFO ]  -1.50E+02	-1.50E+02	1.00E+05	3.44E+06	5.42E-02	-3.12E+04	7.13E-02	5.098E-11	5.098E-11	-6.68E-09
[09:26:12] [INFO ]  -1.50E+02	-1.50E+02	1.00E+06	4.34E+05	7.00E-03	-3.15E+03	9.90E-03	5.051E-11	5.050E-11	-6.33E-09
[09:26:30] [INFO ]  -2.00E+02	-2.00E+02	1.00E+04	2.81E+07	8.08E+00	-3.06E+05	5.95E+00	5.195E-11	5.194E-11	-2.57E-08
[09:26:43] [INFO ]  -2.00E+02	-2.00E+02	1.00E+05	4.01E+06	6.68E-02	-3.12E+04	4.35E-02	5.097E-11	5.096E-11	-2.37E-08
[09:26:57] [INFO ]  -2.00E+02	-2.00E+02	1.00E+06	4.40E+05	1.03E-02	-3.15E+03	1.55E-02	5.055E-11	5.054E-11	-2.27E-08
[09:27:16] [INFO ]  -2.50E+02	-2.50E+02	1.00E+04	2.56E+07	1.09E+01	-3.07E+05	8.61E+00	5.188E-11	5.188E-11	-1.98E-07
[09:27:28] [INFO ]  -2.50E+02	-2.50E+02	1.00E+05	4.57E+06	3.32E-02	-3.12E+04	8.83E-02	5.096E-11	5.096E-11	-1.77E-07
[09:27:42] [INFO ]  -2.50E+02	-2.50E+02	1.00E+06	4.43E+05	1.11E-02	-3.15E+03	1.30E-02	5.058E-11	5.057E-11	-1.64E-07
[09:28:01] [INFO ]  -3.00E+02	-3.00E+02	1.00E+04	2.42E+07	2.77E+00	-3.07E+05	6.16E+00	5.179E-11	5.178E-11	-6.10E-07
[09:28:14] [INFO ]  -3.00E+02	-3.00E+02	1.00E+05	5.14E+06	6.17E-02	-3.12E+04	6.36E-02	5.095E-11	5.095E-11	-5.77E-07
[09:28:27] [INFO ]  -3.00E+02	-3.00E+02	1.00E+06	4.48E+05	1.29E-02	-3.15E+03	1.00E-02	5.059E-11	5.058E-11	-5.61E-07
[09:28:46] [INFO ]  -3.50E+02	-3.50E+02	1.00E+04	2.35E+07	1.37E+01	-3.08E+05	1.05E+01	5.168E-11	5.167E-11	-1.15E-06
[09:28:58] [INFO ]  -3.50E+02	-3.50E+02	1.00E+05	5.79E+06	4.74E-02	-3.12E+04	8.40E-02	5.093E-11	5.093E-11	-1.12E-06
[09:29:12] [INFO ]  -3.50E+02	-3.50E+02	1.00E+06	4.53E+05	4.78E-03	-3.15E+03	9.28E-03	5.059E-11	5.059E-11	-1.09E-06
[09:29:30] [INFO ]  -4.00E+02	-4.00E+02	1.00E+04	2.35E+07	7.24E+00	-3.09E+05	7.71E+00	5.158E-11	5.157E-11	-1.73E-06
[09:29:43] [INFO ]  -4.00E+02	-4.00E+02	1.00E+05	6.47E+06	5.35E-02	-3.13E+04	5.87E-02	5.092E-11	5.092E-11	-1.72E-06
[09:29:57] [INFO ]  -4.00E+02	-4.00E+02	1.00E+06	4.58E+05	8.08E-03	-3.15E+03	1.12E-02	5.059E-11	5.059E-11	-1.69E-06
[09:30:16] [INFO ]  -4.50E+02	-4.50E+02	1.00E+04	2.40E+07	1.68E+01	-3.09E+05	1.43E+01	5.147E-11	5.147E-11	-2.36E-06
[09:30:28] [INFO ]  -4.50E+02	-4.50E+02	1.00E+05	7.21E+06	5.96E-02	-3.13E+04	8.10E-02	5.091E-11	5.091E-11	-2.33E-06
[09:30:42] [INFO ]  -4.50E+02	-4.50E+02	1.00E+06	4.61E+05	1.17E-02	-3.15E+03	1.08E-02	5.059E-11	5.059E-11	-2.30E-06
[09:31:01] [INFO ]  -5.00E+02	-5.00E+02	1.00E+04	2.51E+07	7.40E+00	-3.10E+05	8.55E+00	5.138E-11	5.137E-11	-2.96E-06
[09:31:14] [INFO ]  -5.00E+02	-5.00E+02	1.00E+05	8.02E+06	8.26E-02	-3.13E+04	1.01E-01	5.090E-11	5.090E-11	-2.94E-06
[09:31:27] [INFO ]  -5.00E+02	-5.00E+02	1.00E+06	4.65E+05	9.88E-03	-3.15E+03	1.09E-02	5.059E-11	5.059E-11	-2.90E-06
[09:31:46] [INFO ]  -5.50E+02	-5.50E+02	1.00E+04	2.67E+07	1.37E+01	-3.10E+05	1.31E+01	5.129E-11	5.129E-11	-3.55E-06
[09:31:59] [INFO ]  -5.50E+02	-5.50E+02	1.00E+05	8.85E+06	7.68E-02	-3.13E+04	5.52E-02	5.090E-11	5.090E-11	-3.52E-06
[09:32:13] [INFO ]  -5.50E+02	-5.50E+02	1.00E+06	4.67E+05	1.20E-02	-3.15E+03	1.03E-02	5.059E-11	5.059E-11	-3.49E-06
[09:32:31] [INFO ]  -6.00E+02	-6.00E+02	1.00E+04	2.90E+07	9.42E+00	-3.11E+05	6.51E+00	5.122E-11	5.121E-11	-4.15E-06
[09:32:44] [INFO ]  -6.00E+02	-6.00E+02	1.00E+05	9.71E+06	6.75E-02	-3.13E+04	8.00E-02	5.090E-11	5.090E-11	-4.10E-06
[09:32:58] [INFO ]  -6.00E+02	-6.00E+02	1.00E+06	4.70E+05	1.10E-02	-3.15E+03	4.86E-03	5.059E-11	5.059E-11	-4.05E-06
[09:33:17] [INFO ]  -6.50E+02	-6.50E+02	1.00E+04	3.18E+07	1.27E+01	-3.11E+05	1.21E+01	5.115E-11	5.114E-11	-4.71E-06
[09:33:29] [INFO ]  -6.50E+02	-6.50E+02	1.00E+05	1.06E+07	5.41E-02	-3.13E+04	7.93E-02	5.089E-11	5.089E-11	-4.65E-06
[09:33:43] [INFO ]  -6.50E+02	-6.50E+02	1.00E+06	4.70E+05	1.13E-02	-3.15E+03	1.09E-02	5.059E-11	5.059E-11	-4.60E-06
[09:34:02] [INFO ]  -7.00E+02	-7.00E+02	1.00E+04	3.52E+07	7.62E+00	-3.11E+05	7.77E+00	5.110E-11	5.110E-11	-5.28E-06
[09:34:15] [INFO ]  -7.00E+02	-7.00E+02	1.00E+05	1.13E+07	3.81E-02	-3.13E+04	4.95E-02	5.089E-11	5.089E-11	-5.23E-06
[09:34:29] [INFO ]  -7.00E+02	-7.00E+02	1.00E+06	4.72E+05	9.13E-03	-3.15E+03	7.65E-03	5.059E-11	5.059E-11	-5.19E-06
[09:34:47] [INFO ]  -7.50E+02	-7.50E+02	1.00E+04	3.85E+07	1.27E+01	-3.12E+05	1.27E+01	5.106E-11	5.106E-11	-5.91E-06
[09:35:00] [INFO ]  -7.50E+02	-7.50E+02	1.00E+05	1.21E+07	5.44E-02	-3.13E+04	8.40E-02	5.089E-11	5.089E-11	-5.85E-06
[09:35:14] [INFO ]  -7.50E+02	-7.50E+02	1.00E+06	4.73E+05	9.87E-03	-3.15E+03	7.62E-03	5.059E-11	5.059E-11	-5.81E-06
[09:35:32] [INFO ]  -8.00E+02	-8.00E+02	1.00E+04	4.26E+07	1.09E+01	-3.12E+05	1.41E+01	5.103E-11	5.103E-11	-6.55E-06
[09:35:45] [INFO ]  -8.00E+02	-8.00E+02	1.00E+05	1.27E+07	4.10E-02	-3.13E+04	9.25E-02	5.089E-11	5.089E-11	-6.50E-06
[09:35:59] [INFO ]  -8.00E+02	-8.00E+02	1.00E+06	4.74E+05	1.09E-02	-3.15E+03	1.14E-02	5.059E-11	5.059E-11	-6.47E-06
[09:36:18] [INFO ]  -8.50E+02	-8.50E+02	1.00E+04	4.76E+07	1.63E+01	-3.12E+05	1.50E+01	5.100E-11	5.100E-11	-7.29E-06
[09:36:30] [INFO ]  -8.50E+02	-8.50E+02	1.00E+05	1.32E+07	8.05E-02	-3.13E+04	8.95E-02	5.089E-11	5.089E-11	-7.25E-06
[09:36:45] [INFO ]  -8.50E+02	-8.50E+02	1.00E+06	4.75E+05	8.89E-03	-3.15E+03	6.85E-03	5.059E-11	5.059E-11	-7.21E-06
[09:37:03] [INFO ]  -9.00E+02	-9.00E+02	1.00E+04	5.23E+07	6.46E+00	-3.12E+05	6.28E+00	5.099E-11	5.098E-11	-8.13E-06
[09:37:17] [INFO ]  -9.00E+02	-9.00E+02	1.00E+05	1.37E+07	3.60E-02	-3.13E+04	6.75E-02	5.089E-11	5.089E-11	-8.13E-06
[09:37:30] [INFO ]  -9.00E+02	-9.00E+02	1.00E+06	4.76E+05	7.83E-03	-3.15E+03	9.70E-03	5.059E-11	5.059E-11	-8.10E-06
[09:39:25] [INFO ]  Reseting device.
[09:39:27] [INFO ]  Saving output to file logs/Strip_E1_173_m20C_200kGy/00_20231124_092412/10KHz_cv_Strip_E1_173_m20C_200kGy_Test_name.dat
[09:39:27] [INFO ]  Saving output to file logs/Strip_E1_173_m20C_200kGy/00_20231124_092412/100KHz_cv_Strip_E1_173_m20C_200kGy_Test_name.dat
[09:39:27] [INFO ]  Saving output to file logs/Strip_E1_173_m20C_200kGy/00_20231124_092412/1MHz_cv_Strip_E1_173_m20C_200kGy_Test_name.dat
[09:39:27] [INFO ]  

 CV SCAN FINISHED


[09:39:27] [INFO ]  

STARTING IV SCAN...


[09:39:51] [INFO ]  Reseting device.
[09:39:51] [INFO ]  Nominal Voltage [V]	 Measured Voltage [V]	Total current [A]	IS nominal voltage[V]	IS measured voltage[V]	IS current [A]	IS current Error [A]	Ramping PS current[A]
[09:41:19] [INFO ]  -2.00E+02	-2.000E+02	-1.052E-08	-1.00E+00	-1.000E+00	-4.891E-10	1.167E-12	1.182E-10
[09:41:56] [INFO ]  -2.00E+02	-2.000E+02	-9.737E-09	-8.00E-01	-8.000E-01	-4.565E-10	1.082E-12	2.332E-10
[09:42:32] [INFO ]  -2.00E+02	-2.000E+02	-9.773E-09	-6.00E-01	-6.000E-01	-4.182E-10	1.377E-12	2.568E-10
[09:43:09] [INFO ]  -2.00E+02	-2.000E+02	-9.444E-09	-4.00E-01	-4.000E-01	-3.753E-10	1.927E-12	2.768E-10
[09:43:47] [INFO ]  -2.00E+02	-2.000E+02	-9.393E-09	-2.00E-01	-2.000E-01	-3.331E-10	1.643E-12	2.239E-10
[09:44:24] [INFO ]  -2.00E+02	-2.000E+02	-8.947E-09	-2.22E-16	2.146E-05	-2.881E-10	2.258E-12	4.081E-10
[09:45:01] [INFO ]  -2.00E+02	-2.000E+02	-8.814E-09	2.00E-01	2.000E-01	-2.495E-10	2.244E-12	3.780E-10
[09:45:38] [INFO ]  -2.00E+02	-2.000E+02	-8.830E-09	4.00E-01	4.000E-01	-2.072E-10	1.027E-12	4.076E-10
[09:46:16] [INFO ]  -2.00E+02	-2.000E+02	-8.231E-09	6.00E-01	6.000E-01	-1.675E-10	8.396E-13	2.989E-10
[09:46:53] [INFO ]  -2.00E+02	-2.000E+02	-8.249E-09	8.00E-01	8.000E-01	-1.254E-10	1.021E-12	3.324E-10
[09:47:30] [INFO ]  -2.00E+02	-2.000E+02	-8.402E-09	1.00E+00	1.000E+00	-8.523E-11	1.016E-12	4.879E-10
[09:48:14] [INFO ]  Saving output to file logs/Strip_E1_173_m20C_200kGy/00_20231124_092412/iv_Strip_E1_173_m20C_200kGy_Test_name_-200_V.dat
[09:48:15] [INFO ]  Elapsed time:
[09:48:15] [INFO ]  504.2927508354187
[09:49:32] [INFO ]  -3.00E+02	-3.000E+02	-2.142E-07	-1.00E+00	-1.000E+00	-4.790E-10	1.485E-12	3.960E-11
[09:50:10] [INFO ]  -3.00E+02	-3.000E+02	-2.137E-07	-8.00E-01	-8.000E-01	-4.502E-10	1.438E-12	1.608E-10
[09:50:46] [INFO ]  -3.00E+02	-3.000E+02	-2.129E-07	-6.00E-01	-6.000E-01	-4.194E-10	8.950E-13	2.389E-10
[09:51:23] [INFO ]  -3.00E+02	-3.000E+02	-2.120E-07	-4.00E-01	-4.000E-01	-3.825E-10	1.165E-12	2.224E-10
[09:51:59] [INFO ]  -3.00E+02	-3.000E+02	-2.118E-07	-2.00E-01	-2.000E-01	-3.467E-10	1.212E-12	3.089E-10
[09:52:36] [INFO ]  -3.00E+02	-3.000E+02	-2.100E-07	-2.22E-16	1.957E-05	-3.072E-10	9.122E-13	1.801E-10
[09:53:13] [INFO ]  -3.00E+02	-3.000E+02	-2.091E-07	2.00E-01	2.000E-01	-2.666E-10	9.509E-13	3.942E-10
[09:53:50] [INFO ]  -3.00E+02	-3.000E+02	-2.068E-07	4.00E-01	4.000E-01	-2.249E-10	1.031E-12	4.738E-10
[09:54:27] [INFO ]  -3.00E+02	-3.000E+02	-2.020E-07	6.00E-01	6.000E-01	-1.811E-10	8.701E-13	3.843E-10
[09:55:05] [INFO ]  -3.00E+02	-3.000E+02	-1.986E-07	8.00E-01	8.000E-01	-1.376E-10	1.177E-12	5.109E-10
[09:55:41] [INFO ]  -3.00E+02	-3.000E+02	-1.966E-07	1.00E+00	1.000E+00	-9.543E-11	1.296E-12	4.532E-10
[09:56:25] [INFO ]  Saving output to file logs/Strip_E1_173_m20C_200kGy/00_20231124_092412/iv_Strip_E1_173_m20C_200kGy_Test_name_-300_V.dat
[09:56:25] [INFO ]  Elapsed time:
[09:56:25] [INFO ]  490.46986722946167
[09:57:42] [INFO ]  -4.00E+02	-4.000E+02	-1.022E-06	-1.00E+00	-1.000E+00	-4.529E-10	6.795E-13	1.292E-10
[09:58:19] [INFO ]  -4.00E+02	-4.000E+02	-1.012E-06	-8.00E-01	-8.000E-01	-4.215E-10	1.080E-12	2.675E-10
[09:58:57] [INFO ]  -4.00E+02	-4.000E+02	-1.016E-06	-6.00E-01	-6.000E-01	-3.917E-10	7.340E-13	3.821E-10
[09:59:34] [INFO ]  -4.00E+02	-4.000E+02	-1.020E-06	-4.00E-01	-4.000E-01	-3.642E-10	8.251E-13	4.865E-10
[10:00:11] [INFO ]  -4.00E+02	-4.000E+02	-1.027E-06	-2.00E-01	-2.000E-01	-3.341E-10	5.757E-13	3.794E-10
[10:00:48] [INFO ]  -4.00E+02	-4.000E+02	-1.034E-06	-2.22E-16	2.353E-05	-3.013E-10	2.169E-12	4.937E-10
[10:01:25] [INFO ]  -4.00E+02	-4.000E+02	-1.037E-06	2.00E-01	2.000E-01	-2.691E-10	1.942E-12	3.916E-10
[10:02:02] [INFO ]  -4.00E+02	-4.000E+02	-1.047E-06	4.00E-01	4.000E-01	-2.360E-10	1.094E-12	6.433E-10
[10:02:40] [INFO ]  -4.00E+02	-4.000E+02	-1.049E-06	6.00E-01	6.000E-01	-1.994E-10	8.338E-13	6.611E-10
[10:03:17] [INFO ]  -4.00E+02	-4.000E+02	-1.051E-06	8.00E-01	8.000E-01	-1.612E-10	8.946E-13	8.570E-10
[10:03:53] [INFO ]  -4.00E+02	-4.000E+02	-1.049E-06	1.00E+00	1.000E+00	-1.188E-10	1.609E-12	7.928E-10
[10:04:37] [INFO ]  Saving output to file logs/Strip_E1_173_m20C_200kGy/00_20231124_092412/iv_Strip_E1_173_m20C_200kGy_Test_name_-400_V.dat
[10:04:38] [INFO ]  Elapsed time:
[10:04:38] [INFO ]  492.5606427192688
[10:05:55] [INFO ]  -5.00E+02	-5.000E+02	-2.125E-06	-1.00E+00	-1.000E+00	-4.798E-10	9.697E-13	2.390E-10
[10:06:32] [INFO ]  -5.00E+02	-5.000E+02	-2.081E-06	-8.00E-01	-8.000E-01	-4.405E-10	1.066E-12	3.297E-10
[10:07:10] [INFO ]  -5.00E+02	-5.000E+02	-2.056E-06	-6.00E-01	-6.000E-01	-4.016E-10	8.309E-13	3.287E-10
[10:07:47] [INFO ]  -5.00E+02	-5.000E+02	-2.017E-06	-4.00E-01	-4.000E-01	-3.638E-10	4.980E-13	5.441E-10
[10:08:23] [INFO ]  -5.00E+02	-5.000E+02	-1.996E-06	-2.00E-01	-2.000E-01	-3.294E-10	4.735E-13	4.972E-10
[10:09:01] [INFO ]  -5.00E+02	-5.000E+02	-1.984E-06	-2.22E-16	2.204E-05	-2.952E-10	4.226E-13	5.461E-10
[10:09:38] [INFO ]  -5.00E+02	-5.000E+02	-1.990E-06	2.00E-01	2.000E-01	-2.653E-10	5.100E-13	5.141E-10
[10:10:15] [INFO ]  -5.00E+02	-5.000E+02	-1.999E-06	4.00E-01	4.000E-01	-2.353E-10	7.696E-13	5.842E-10
[10:10:52] [INFO ]  -5.00E+02	-5.000E+02	-2.022E-06	6.00E-01	6.000E-01	-2.042E-10	1.023E-12	6.481E-10
[10:11:29] [INFO ]  -5.00E+02	-5.000E+02	-2.038E-06	8.00E-01	8.000E-01	-1.705E-10	8.621E-13	6.909E-10
[10:12:06] [INFO ]  -5.00E+02	-5.000E+02	-2.045E-06	1.00E+00	1.000E+00	-1.360E-10	1.231E-12	7.988E-10
[10:12:49] [INFO ]  Saving output to file logs/Strip_E1_173_m20C_200kGy/00_20231124_092412/iv_Strip_E1_173_m20C_200kGy_Test_name_-500_V.dat
[10:12:50] [INFO ]  Elapsed time:
[10:12:50] [INFO ]  492.12294840812683
[10:14:07] [INFO ]  -6.00E+02	-6.000E+02	-3.179E-06	-1.00E+00	-1.000E+00	-4.805E-10	1.226E-12	3.681E-10
[10:14:44] [INFO ]  -6.00E+02	-6.000E+02	-3.123E-06	-8.00E-01	-8.000E-01	-4.435E-10	1.283E-12	4.626E-10
[10:15:20] [INFO ]  -6.00E+02	-6.000E+02	-3.089E-06	-6.00E-01	-6.000E-01	-4.072E-10	1.585E-12	3.587E-10
[10:15:58] [INFO ]  -6.00E+02	-6.000E+02	-3.059E-06	-4.00E-01	-4.000E-01	-3.738E-10	1.112E-12	4.386E-10
[10:16:35] [INFO ]  -6.00E+02	-6.000E+02	-3.026E-06	-2.00E-01	-2.000E-01	-3.421E-10	8.514E-13	5.155E-10
[10:17:12] [INFO ]  -6.00E+02	-6.000E+02	-3.004E-06	-2.22E-16	2.370E-05	-3.081E-10	1.112E-12	5.517E-10
[10:17:49] [INFO ]  -6.00E+02	-6.000E+02	-2.968E-06	2.00E-01	2.000E-01	-2.756E-10	7.013E-13	8.226E-10
[10:18:26] [INFO ]  -6.00E+02	-6.000E+02	-2.951E-06	4.00E-01	4.000E-01	-2.428E-10	6.544E-13	5.461E-10
[10:19:03] [INFO ]  -6.00E+02	-6.000E+02	-2.935E-06	6.00E-01	6.000E-01	-2.128E-10	9.826E-13	6.298E-10
[10:19:41] [INFO ]  -6.00E+02	-6.000E+02	-2.936E-06	8.00E-01	8.000E-01	-1.819E-10	8.255E-13	5.818E-10
[10:20:17] [INFO ]  -6.00E+02	-6.000E+02	-2.961E-06	1.00E+00	1.000E+00	-1.527E-10	1.106E-12	7.526E-10
[10:21:01] [INFO ]  Saving output to file logs/Strip_E1_173_m20C_200kGy/00_20231124_092412/iv_Strip_E1_173_m20C_200kGy_Test_name_-600_V.dat
[10:21:02] [INFO ]  Elapsed time:
[10:21:02] [INFO ]  491.7339081764221
[10:22:19] [INFO ]  -7.00E+02	-7.000E+02	-4.258E-06	-1.00E+00	-1.000E+00	-4.826E-10	7.490E-13	4.431E-10
[10:22:56] [INFO ]  -7.00E+02	-7.000E+02	-4.252E-06	-8.00E-01	-8.000E-01	-4.558E-10	1.208E-12	3.261E-10
[10:23:33] [INFO ]  -7.00E+02	-7.000E+02	-4.243E-06	-6.00E-01	-6.000E-01	-4.269E-10	8.947E-13	4.077E-10
[10:24:10] [INFO ]  -7.00E+02	-7.000E+02	-4.225E-06	-4.00E-01	-4.000E-01	-3.993E-10	1.152E-12	5.123E-10
[10:24:47] [INFO ]  -7.00E+02	-7.000E+02	-4.182E-06	-2.00E-01	-2.000E-01	-3.659E-10	7.913E-13	5.562E-10
[10:25:24] [INFO ]  -7.00E+02	-7.000E+02	-4.117E-06	-2.22E-16	2.147E-05	-3.301E-10	8.290E-13	2.662E-10
[10:26:02] [INFO ]  -7.00E+02	-7.000E+02	-4.065E-06	2.00E-01	2.000E-01	-2.982E-10	9.195E-13	8.024E-10
[10:26:39] [INFO ]  -7.00E+02	-7.000E+02	-4.023E-06	4.00E-01	4.000E-01	-2.653E-10	9.322E-13	4.811E-10
[10:27:16] [INFO ]  -7.00E+02	-7.000E+02	-3.981E-06	6.00E-01	6.000E-01	-2.331E-10	9.842E-13	6.500E-10
[10:27:53] [INFO ]  -7.00E+02	-7.000E+02	-3.915E-06	8.00E-01	8.000E-01	-2.018E-10	1.298E-12	5.717E-10
[10:28:30] [INFO ]  -7.00E+02	-7.000E+02	-3.888E-06	1.00E+00	1.000E+00	-1.709E-10	1.115E-12	6.315E-10
[10:29:14] [INFO ]  Saving output to file logs/Strip_E1_173_m20C_200kGy/00_20231124_092412/iv_Strip_E1_173_m20C_200kGy_Test_name_-700_V.dat
[10:29:15] [INFO ]  Elapsed time:
[10:29:15] [INFO ]  492.7828691005707
[10:30:31] [INFO ]  -8.00E+02	-8.000E+02	-5.043E-06	-1.00E+00	-1.000E+00	-4.423E-10	1.131E-12	3.394E-10
[10:31:09] [INFO ]  -8.00E+02	-8.000E+02	-5.025E-06	-8.00E-01	-8.000E-01	-4.204E-10	1.035E-12	3.622E-10
[10:31:46] [INFO ]  -8.00E+02	-8.000E+02	-5.015E-06	-6.00E-01	-6.000E-01	-3.982E-10	9.543E-13	2.739E-10
[10:32:23] [INFO ]  -8.00E+02	-8.000E+02	-5.028E-06	-4.00E-01	-4.000E-01	-3.764E-10	9.915E-13	4.809E-10
[10:33:00] [INFO ]  -8.00E+02	-8.000E+02	-5.094E-06	-2.00E-01	-2.000E-01	-3.589E-10	1.185E-12	4.266E-10
[10:33:38] [INFO ]  -8.00E+02	-8.000E+02	-5.140E-06	-2.22E-16	2.229E-05	-3.384E-10	4.008E-13	6.026E-10
[10:34:15] [INFO ]  -8.00E+02	-8.000E+02	-5.181E-06	2.00E-01	2.000E-01	-3.187E-10	8.856E-13	6.865E-10
[10:34:52] [INFO ]  -8.00E+02	-8.000E+02	-5.240E-06	4.00E-01	4.000E-01	-2.966E-10	6.978E-13	6.690E-10
[10:35:29] [INFO ]  -8.00E+02	-8.000E+02	-5.267E-06	6.00E-01	6.000E-01	-2.730E-10	8.873E-13	7.285E-10
[10:36:06] [INFO ]  -8.00E+02	-8.000E+02	-5.290E-06	8.00E-01	8.000E-01	-2.480E-10	1.332E-12	7.819E-10
[10:36:43] [INFO ]  -8.00E+02	-8.000E+02	-5.302E-06	1.00E+00	1.000E+00	-2.191E-10	1.048E-12	5.972E-10
[10:37:27] [INFO ]  Saving output to file logs/Strip_E1_173_m20C_200kGy/00_20231124_092412/iv_Strip_E1_173_m20C_200kGy_Test_name_-800_V.dat
[10:37:27] [INFO ]  Elapsed time:
[10:37:27] [INFO ]  492.74227643013
[10:38:44] [INFO ]  -9.00E+02	-8.999E+02	-6.601E-06	-1.00E+00	-1.000E+00	-4.915E-10	8.899E-13	2.931E-10
[10:39:21] [INFO ]  -9.00E+02	-8.999E+02	-6.472E-06	-8.00E-01	-8.000E-01	-4.574E-10	1.063E-12	4.705E-10
[10:39:58] [INFO ]  -9.00E+02	-8.999E+02	-6.361E-06	-6.00E-01	-6.000E-01	-4.271E-10	9.143E-13	4.558E-10
[10:40:35] [INFO ]  -9.00E+02	-8.999E+02	-6.261E-06	-4.00E-01	-4.000E-01	-3.975E-10	8.273E-13	5.359E-10
[10:41:12] [INFO ]  -9.00E+02	-8.999E+02	-6.208E-06	-2.00E-01	-2.000E-01	-3.710E-10	1.166E-12	4.031E-10
[10:41:49] [INFO ]  -9.00E+02	-8.999E+02	-6.175E-06	-2.22E-16	2.213E-05	-3.453E-10	1.001E-12	4.994E-10
[10:42:26] [INFO ]  -9.00E+02	-8.999E+02	-6.136E-06	2.00E-01	2.000E-01	-3.226E-10	8.504E-13	5.741E-10
[10:43:04] [INFO ]  -9.00E+02	-8.999E+02	-6.157E-06	4.00E-01	4.000E-01	-3.019E-10	9.013E-13	4.331E-10
[10:43:41] [INFO ]  -9.00E+02	-8.999E+02	-6.202E-06	6.00E-01	6.000E-01	-2.820E-10	1.045E-12	5.617E-10
[10:44:17] [INFO ]  -9.00E+02	-8.999E+02	-6.262E-06	8.00E-01	8.000E-01	-2.616E-10	1.390E-12	6.325E-10
[10:44:55] [INFO ]  -9.00E+02	-8.999E+02	-6.293E-06	1.00E+00	1.000E+00	-2.400E-10	1.255E-12	7.165E-10
[10:45:38] [INFO ]  Saving output to file logs/Strip_E1_173_m20C_200kGy/00_20231124_092412/iv_Strip_E1_173_m20C_200kGy_Test_name_-900_V.dat
[10:45:39] [INFO ]  Elapsed time:
[10:45:39] [INFO ]  491.220397233963
[10:47:34] [INFO ]  Reseting device.
[10:47:34] [INFO ]  Saving output to file logs/Strip_E1_173_m20C_200kGy/00_20231124_092412/rv_Strip_E1_173_m20C_200kGy_Test_name.dat
[10:47:34] [INFO ]  

 IV SCAN FINISHED


[10:47:34] [INFO ]  	
[10:47:34] [INFO ]  Cleaning up.
[10:47:34] [INFO ]  	
[10:47:34] [INFO ]  	
