[01:32:53] [INFO ]  	
[01:32:53] [INFO ]  ------------------------------------------
[01:32:53] [INFO ]  Running all 3 measurements of the silicon! :)
[01:32:53] [INFO ]  ------------------------------------------
[01:32:53] [INFO ]  Measurement of a dummy I-V curve. 
[01:32:53] [INFO ]  	
[01:32:53] [INFO ]  Start date          : 2023/11/21 01:32:53
[01:32:53] [INFO ]  User                : hgsensor
[01:32:53] [INFO ]  Host                : pcdttp02
[01:32:53] [INFO ]  Identifier          : Strip_182_m20C_70kGy
[01:32:53] [INFO ]  Log will be stored to logs/Strip_182_m20C_70kGy/00_20231121_013253/log.txt
[01:32:53] [INFO ]  	
[01:32:53] [INFO ]  Initialising device.
[01:32:53] [INFO ]  KEITHLEY INSTRUMENTS INC.,MODEL 2410,4005154,C32   Oct  4 2010 14:20:11/A02  /J/K

[01:32:53] [INFO ]  Initialising device.
[01:32:53] [INFO ]  KEITHLEY INSTRUMENTS INC.,MODEL 2410,4354538,C34 Sep 21 2016 15:30:00/A02  /K/M

[01:32:53] [INFO ]  Initialising device.
[01:32:53] [INFO ]  KEITHLEY INSTRUMENTS INC.,MODEL 7001,1293707,A10  /A02  

[01:32:53] [INFO ]  Reseting device.
[01:32:53] [INFO ]  Initialising device.
[01:32:53] [INFO ]  Agilent Technologies,E4980A,MY46414370,A.06.15

[01:32:53] [INFO ]  Initialising device.
[01:32:53] [INFO ]  KEITHLEY INSTRUMENTS INC.,MODEL 6487,1335907,B02   Sep 08 2010 12:47:38/A02  /C/G

[01:32:54] [INFO ]  CV Sweep

[01:32:54] [INFO ]  Measurement Settings:
[01:32:54] [INFO ]  Power Supply voltage limit:      2.10E+01 V
[01:32:54] [INFO ]  Power Supply current limit:      1.00E-04 A
[01:32:54] [INFO ]  LCR measurement voltage:         5.00E-01 V
[01:32:54] [INFO ]  LCR measurement frequency:       1.00E+03 Hz
[01:32:54] [INFO ]  Voltage Delay:                      10.00 s
[01:32:54] [INFO ]  Nominal Voltage [V]	 Measured Voltage [V]	Freq [Hz]	R [Ohm]	R_Err [Ohm]	X [Ohm]	X_Err [Ohm]	Cs [F]	Cp [F]	Total Current [A]
[01:32:54] [INFO ]  

STARTING CV SCAN...


[01:33:16] [INFO ]  Reseting device.
[01:33:16] [INFO ]  Nominal Voltage [V]	 Measured Voltage [V]	Freq [Hz]	R [Ohm]	R_Err [Ohm]	X [Ohm]	X_Err [Ohm]	Cs [F]	Cp [F]	Total Current [A]
[01:33:39] [INFO ]  -1.00E+02	-1.00E+02	1.00E+04	3.44E+07	9.99E+00	-3.05E+05	9.43E+00	5.214E-11	5.213E-11	-1.42E-09
[01:33:52] [INFO ]  -1.00E+02	-1.00E+02	1.00E+05	2.40E+06	4.48E-02	-3.11E+04	5.25E-02	5.115E-11	5.114E-11	-4.22E-10
[01:34:05] [INFO ]  -1.00E+02	-1.00E+02	1.00E+06	4.09E+05	6.57E-03	-3.15E+03	7.22E-03	5.047E-11	5.046E-11	-3.69E-10
[01:34:23] [INFO ]  -1.50E+02	-1.50E+02	1.00E+04	2.86E+07	8.67E+00	-3.05E+05	8.97E+00	5.213E-11	5.213E-11	-1.30E-09
[01:34:35] [INFO ]  -1.50E+02	-1.50E+02	1.00E+05	2.90E+06	4.79E-02	-3.12E+04	6.66E-02	5.105E-11	5.105E-11	-1.74E-09
[01:34:48] [INFO ]  -1.50E+02	-1.50E+02	1.00E+06	4.29E+05	7.14E-03	-3.15E+03	6.96E-03	5.052E-11	5.052E-11	-1.43E-09
[01:35:06] [INFO ]  -2.00E+02	-2.00E+02	1.00E+04	2.52E+07	8.54E+00	-3.06E+05	8.49E+00	5.209E-11	5.208E-11	-9.50E-09
[01:35:19] [INFO ]  -2.00E+02	-2.00E+02	1.00E+05	3.45E+06	6.05E-02	-3.12E+04	9.88E-02	5.102E-11	5.101E-11	-9.10E-09
[01:35:31] [INFO ]  -2.00E+02	-2.00E+02	1.00E+06	4.43E+05	8.49E-03	-3.15E+03	7.46E-03	5.056E-11	5.056E-11	-8.67E-09
[01:35:49] [INFO ]  -2.50E+02	-2.50E+02	1.00E+04	2.30E+07	8.07E+00	-3.06E+05	8.85E+00	5.201E-11	5.200E-11	-1.47E-07
[01:36:02] [INFO ]  -2.50E+02	-2.50E+02	1.00E+05	3.99E+06	4.17E-02	-3.12E+04	1.04E-01	5.100E-11	5.099E-11	-1.28E-07
[01:36:15] [INFO ]  -2.50E+02	-2.50E+02	1.00E+06	4.52E+05	5.65E-03	-3.15E+03	8.27E-03	5.058E-11	5.058E-11	-1.17E-07
[01:36:32] [INFO ]  -3.00E+02	-3.00E+02	1.00E+04	2.17E+07	9.67E+00	-3.07E+05	6.29E+00	5.190E-11	5.189E-11	-5.26E-07
[01:36:45] [INFO ]  -3.00E+02	-3.00E+02	1.00E+05	4.57E+06	4.90E-02	-3.12E+04	8.74E-02	5.097E-11	5.097E-11	-4.97E-07
[01:36:58] [INFO ]  -3.00E+02	-3.00E+02	1.00E+06	4.62E+05	6.73E-03	-3.15E+03	5.62E-03	5.059E-11	5.059E-11	-4.81E-07
[01:37:16] [INFO ]  -3.50E+02	-3.50E+02	1.00E+04	2.12E+07	8.28E+00	-3.07E+05	7.32E+00	5.177E-11	5.176E-11	-1.06E-06
[01:37:28] [INFO ]  -3.50E+02	-3.50E+02	1.00E+05	5.18E+06	5.14E-02	-3.12E+04	9.84E-02	5.095E-11	5.095E-11	-1.03E-06
[01:37:41] [INFO ]  -3.50E+02	-3.50E+02	1.00E+06	4.71E+05	5.92E-03	-3.15E+03	8.81E-03	5.059E-11	5.059E-11	-1.02E-06
[01:37:59] [INFO ]  -4.00E+02	-4.00E+02	1.00E+04	2.12E+07	8.31E+00	-3.08E+05	7.67E+00	5.165E-11	5.164E-11	-1.67E-06
[01:38:12] [INFO ]  -4.00E+02	-4.00E+02	1.00E+05	5.85E+06	5.86E-02	-3.12E+04	5.25E-02	5.093E-11	5.093E-11	-1.65E-06
[01:38:24] [INFO ]  -4.00E+02	-4.00E+02	1.00E+06	4.79E+05	5.26E-03	-3.15E+03	8.18E-03	5.059E-11	5.059E-11	-1.63E-06
[01:38:42] [INFO ]  -4.50E+02	-4.50E+02	1.00E+04	2.18E+07	9.28E+00	-3.09E+05	9.75E+00	5.153E-11	5.152E-11	-2.32E-06
[01:38:55] [INFO ]  -4.50E+02	-4.50E+02	1.00E+05	6.57E+06	6.52E-02	-3.13E+04	8.18E-02	5.092E-11	5.092E-11	-2.31E-06
[01:39:08] [INFO ]  -4.50E+02	-4.50E+02	1.00E+06	4.85E+05	7.18E-03	-3.15E+03	7.32E-03	5.060E-11	5.059E-11	-2.31E-06
[01:39:25] [INFO ]  -5.00E+02	-5.00E+02	1.00E+04	2.29E+07	1.02E+01	-3.09E+05	1.33E+01	5.142E-11	5.142E-11	-3.04E-06
[01:39:38] [INFO ]  -5.00E+02	-5.00E+02	1.00E+05	7.30E+06	1.16E-01	-3.13E+04	6.29E-02	5.091E-11	5.091E-11	-3.04E-06
[01:39:51] [INFO ]  -5.00E+02	-5.00E+02	1.00E+06	4.89E+05	5.42E-03	-3.15E+03	7.38E-03	5.060E-11	5.059E-11	-3.05E-06
[01:40:09] [INFO ]  -5.50E+02	-5.50E+02	1.00E+04	2.43E+07	1.13E+01	-3.10E+05	1.03E+01	5.134E-11	5.133E-11	-3.82E-06
[01:40:21] [INFO ]  -5.50E+02	-5.50E+02	1.00E+05	8.08E+06	6.20E-02	-3.13E+04	9.28E-02	5.090E-11	5.090E-11	-3.83E-06
[01:40:34] [INFO ]  -5.50E+02	-5.50E+02	1.00E+06	4.93E+05	7.99E-03	-3.15E+03	6.96E-03	5.060E-11	5.059E-11	-3.82E-06
[01:40:52] [INFO ]  -6.00E+02	-6.00E+02	1.00E+04	2.61E+07	8.78E+00	-3.11E+05	9.45E+00	5.126E-11	5.125E-11	-4.64E-06
[01:41:05] [INFO ]  -6.00E+02	-6.00E+02	1.00E+05	8.88E+06	5.71E-02	-3.13E+04	7.87E-02	5.090E-11	5.090E-11	-4.63E-06
[01:41:17] [INFO ]  -6.00E+02	-6.00E+02	1.00E+06	4.97E+05	5.71E-03	-3.15E+03	1.16E-02	5.060E-11	5.059E-11	-4.64E-06
[01:41:35] [INFO ]  -6.50E+02	-6.50E+02	1.00E+04	2.83E+07	1.04E+01	-3.11E+05	8.15E+00	5.120E-11	5.119E-11	-5.50E-06
[01:41:48] [INFO ]  -6.50E+02	-6.50E+02	1.00E+05	9.68E+06	4.82E-02	-3.13E+04	8.49E-02	5.089E-11	5.089E-11	-5.51E-06
[01:42:00] [INFO ]  -6.50E+02	-6.50E+02	1.00E+06	5.00E+05	6.90E-03	-3.15E+03	7.49E-03	5.060E-11	5.059E-11	-5.51E-06
[01:42:18] [INFO ]  -7.00E+02	-7.00E+02	1.00E+04	3.08E+07	7.77E+00	-3.11E+05	6.97E+00	5.114E-11	5.114E-11	-6.45E-06
[01:42:31] [INFO ]  -7.00E+02	-7.00E+02	1.00E+05	1.04E+07	3.94E-02	-3.13E+04	6.13E-02	5.089E-11	5.089E-11	-6.43E-06
[01:42:44] [INFO ]  -7.00E+02	-7.00E+02	1.00E+06	5.02E+05	7.81E-03	-3.15E+03	6.96E-03	5.060E-11	5.060E-11	-6.43E-06
[01:43:01] [INFO ]  -7.50E+02	-7.50E+02	1.00E+04	3.39E+07	7.26E+00	-3.11E+05	8.14E+00	5.109E-11	5.109E-11	-7.40E-06
[01:43:14] [INFO ]  -7.50E+02	-7.50E+02	1.00E+05	1.12E+07	7.30E-02	-3.13E+04	4.91E-02	5.089E-11	5.089E-11	-7.38E-06
[01:43:27] [INFO ]  -7.50E+02	-7.50E+02	1.00E+06	5.04E+05	7.59E-03	-3.15E+03	7.46E-03	5.060E-11	5.060E-11	-7.37E-06
[01:43:45] [INFO ]  -8.00E+02	-8.00E+02	1.00E+04	3.76E+07	7.68E+00	-3.12E+05	8.60E+00	5.105E-11	5.105E-11	-8.39E-06
[01:43:57] [INFO ]  -8.00E+02	-8.00E+02	1.00E+05	1.20E+07	4.45E-02	-3.13E+04	9.36E-02	5.089E-11	5.089E-11	-8.34E-06
[01:44:10] [INFO ]  -8.00E+02	-8.00E+02	1.00E+06	5.06E+05	6.72E-03	-3.15E+03	7.54E-03	5.060E-11	5.060E-11	-8.30E-06
[01:44:28] [INFO ]  -8.50E+02	-8.50E+02	1.00E+04	4.17E+07	8.76E+00	-3.12E+05	7.37E+00	5.103E-11	5.102E-11	-9.35E-06
[01:44:41] [INFO ]  -8.50E+02	-8.50E+02	1.00E+05	1.27E+07	5.02E-02	-3.13E+04	8.12E-02	5.089E-11	5.089E-11	-9.29E-06
[01:44:53] [INFO ]  -8.50E+02	-8.50E+02	1.00E+06	5.06E+05	8.87E-03	-3.15E+03	6.75E-03	5.060E-11	5.060E-11	-9.23E-06
[01:45:11] [INFO ]  -9.00E+02	-9.00E+02	1.00E+04	4.70E+07	1.06E+01	-3.12E+05	7.01E+00	5.100E-11	5.099E-11	-1.03E-05
[01:45:24] [INFO ]  -9.00E+02	-9.00E+02	1.00E+05	1.34E+07	6.13E-02	-3.13E+04	4.05E-02	5.089E-11	5.089E-11	-1.02E-05
[01:45:36] [INFO ]  -9.00E+02	-9.00E+02	1.00E+06	5.08E+05	6.30E-03	-3.15E+03	5.51E-03	5.060E-11	5.060E-11	-1.01E-05
[01:47:30] [INFO ]  Reseting device.
[01:47:33] [INFO ]  Saving output to file logs/Strip_182_m20C_70kGy/00_20231121_013253/10KHz_cv_Strip_182_m20C_70kGy_Test_name.dat
[01:47:33] [INFO ]  Saving output to file logs/Strip_182_m20C_70kGy/00_20231121_013253/100KHz_cv_Strip_182_m20C_70kGy_Test_name.dat
[01:47:33] [INFO ]  Saving output to file logs/Strip_182_m20C_70kGy/00_20231121_013253/1MHz_cv_Strip_182_m20C_70kGy_Test_name.dat
[01:47:33] [INFO ]  

 CV SCAN FINISHED


[01:47:33] [INFO ]  

STARTING IV SCAN...


[01:47:55] [INFO ]  Reseting device.
[01:47:55] [INFO ]  Nominal Voltage [V]	 Measured Voltage [V]	Total current [A]	IS nominal voltage[V]	IS measured voltage[V]	IS current [A]	IS current Error [A]	Ramping PS current[A]
[01:49:21] [INFO ]  -2.00E+02	-2.000E+02	-2.751E-09	-1.00E+00	-1.000E+00	-6.590E-09	2.956E-12	-7.388E-09
[01:49:56] [INFO ]  -2.00E+02	-2.000E+02	-2.402E-09	-8.00E-01	-8.000E-01	-5.513E-09	4.377E-12	-6.092E-09
[01:50:31] [INFO ]  -2.00E+02	-2.000E+02	-2.275E-09	-6.00E-01	-6.000E-01	-4.322E-09	6.689E-12	-4.766E-09
[01:51:06] [INFO ]  -2.00E+02	-2.000E+02	-2.249E-09	-4.00E-01	-4.000E-01	-3.000E-09	5.700E-12	-3.232E-09
[01:51:41] [INFO ]  -2.00E+02	-2.000E+02	-2.104E-09	-2.00E-01	-2.000E-01	-1.596E-09	4.856E-12	-1.699E-09
[01:52:16] [INFO ]  -2.00E+02	-2.000E+02	-2.051E-09	-2.22E-16	2.213E-05	-1.100E-10	2.748E-12	2.668E-11
[01:52:51] [INFO ]  -2.00E+02	-2.000E+02	-2.305E-09	2.00E-01	2.000E-01	1.434E-09	3.802E-12	1.680E-09
[01:53:26] [INFO ]  -2.00E+02	-2.000E+02	-2.287E-09	4.00E-01	4.000E-01	3.009E-09	3.790E-12	3.761E-09
[01:54:01] [INFO ]  -2.00E+02	-2.000E+02	-2.462E-09	6.00E-01	6.000E-01	4.631E-09	8.722E-12	5.580E-09
[01:54:36] [INFO ]  -2.00E+02	-2.000E+02	-2.270E-09	8.00E-01	8.000E-01	6.274E-09	3.962E-12	7.280E-09
[01:55:11] [INFO ]  -2.00E+02	-2.000E+02	-2.076E-09	1.00E+00	1.000E+00	7.916E-09	6.298E-12	9.219E-09
[01:55:54] [INFO ]  Saving output to file logs/Strip_182_m20C_70kGy/00_20231121_013253/iv_Strip_182_m20C_70kGy_Test_name_-200_V.dat
[01:55:55] [INFO ]  Elapsed time:
[01:55:55] [INFO ]  479.67611861228943
[01:57:10] [INFO ]  -3.00E+02	-3.000E+02	-1.841E-07	-1.00E+00	-1.000E+00	-6.348E-09	6.430E-12	-7.096E-09
[01:57:45] [INFO ]  -3.00E+02	-3.000E+02	-1.831E-07	-8.00E-01	-8.000E-01	-5.085E-09	3.295E-12	-5.690E-09
[01:58:20] [INFO ]  -3.00E+02	-3.000E+02	-1.835E-07	-6.00E-01	-6.000E-01	-3.842E-09	5.624E-12	-4.267E-09
[01:58:55] [INFO ]  -3.00E+02	-3.000E+02	-1.824E-07	-4.00E-01	-4.000E-01	-2.588E-09	3.852E-12	-2.858E-09
[01:59:30] [INFO ]  -3.00E+02	-3.000E+02	-1.829E-07	-2.00E-01	-2.000E-01	-1.349E-09	2.992E-12	-1.174E-09
[02:00:05] [INFO ]  -3.00E+02	-3.000E+02	-1.834E-07	-2.22E-16	2.147E-05	-9.318E-11	7.554E-12	1.933E-11
[02:00:40] [INFO ]  -3.00E+02	-3.000E+02	-1.850E-07	2.00E-01	2.000E-01	1.194E-09	1.210E-11	1.485E-09
[02:01:15] [INFO ]  -3.00E+02	-3.000E+02	-1.882E-07	4.00E-01	4.000E-01	2.552E-09	1.669E-11	3.027E-09
[02:01:50] [INFO ]  -3.00E+02	-3.000E+02	-1.900E-07	6.00E-01	6.000E-01	3.946E-09	1.315E-11	4.630E-09
[02:02:26] [INFO ]  -3.00E+02	-3.000E+02	-1.920E-07	8.00E-01	8.000E-01	5.371E-09	1.496E-11	6.250E-09
[02:03:01] [INFO ]  -3.00E+02	-3.000E+02	-1.928E-07	1.00E+00	1.000E+00	6.814E-09	1.343E-11	7.849E-09
[02:03:44] [INFO ]  Saving output to file logs/Strip_182_m20C_70kGy/00_20231121_013253/iv_Strip_182_m20C_70kGy_Test_name_-300_V.dat
[02:03:45] [INFO ]  Elapsed time:
[02:03:45] [INFO ]  469.4960572719574
[02:05:00] [INFO ]  -4.00E+02	-4.000E+02	-1.265E-06	-1.00E+00	-1.000E+00	-5.479E-09	1.543E-11	-6.072E-09
[02:05:35] [INFO ]  -4.00E+02	-4.000E+02	-1.232E-06	-8.00E-01	-8.000E-01	-4.402E-09	7.381E-12	-4.707E-09
[02:06:10] [INFO ]  -4.00E+02	-4.000E+02	-1.218E-06	-6.00E-01	-6.000E-01	-3.334E-09	1.405E-11	-3.477E-09
[02:06:45] [INFO ]  -4.00E+02	-4.000E+02	-1.209E-06	-4.00E-01	-4.000E-01	-2.252E-09	1.290E-11	-2.310E-09
[02:07:20] [INFO ]  -4.00E+02	-4.000E+02	-1.193E-06	-2.00E-01	-2.000E-01	-1.165E-09	7.520E-12	-1.180E-09
[02:07:55] [INFO ]  -4.00E+02	-4.000E+02	-1.181E-06	-2.22E-16	2.279E-05	-9.691E-11	3.802E-12	6.245E-12
[02:08:30] [INFO ]  -4.00E+02	-4.000E+02	-1.174E-06	2.00E-01	2.000E-01	9.798E-10	4.473E-12	1.179E-09
[02:09:05] [INFO ]  -4.00E+02	-4.000E+02	-1.170E-06	4.00E-01	4.000E-01	2.057E-09	4.159E-12	2.528E-09
[02:09:40] [INFO ]  -4.00E+02	-4.000E+02	-1.165E-06	6.00E-01	6.000E-01	3.153E-09	3.280E-12	3.696E-09
[02:10:15] [INFO ]  -4.00E+02	-4.000E+02	-1.171E-06	8.00E-01	8.000E-01	4.290E-09	5.084E-12	5.111E-09
[02:10:50] [INFO ]  -4.00E+02	-4.000E+02	-1.180E-06	1.00E+00	1.000E+00	5.485E-09	7.881E-12	6.392E-09
[02:11:33] [INFO ]  Saving output to file logs/Strip_182_m20C_70kGy/00_20231121_013253/iv_Strip_182_m20C_70kGy_Test_name_-400_V.dat
[02:11:34] [INFO ]  Elapsed time:
[02:11:34] [INFO ]  469.5333151817322
[02:12:49] [INFO ]  -5.00E+02	-5.000E+02	-2.625E-06	-1.00E+00	-1.000E+00	-4.701E-09	3.529E-12	-5.334E-09
[02:13:24] [INFO ]  -5.00E+02	-5.000E+02	-2.636E-06	-8.00E-01	-8.000E-01	-3.832E-09	7.419E-12	-4.161E-09
[02:13:59] [INFO ]  -5.00E+02	-5.000E+02	-2.638E-06	-6.00E-01	-6.000E-01	-2.930E-09	9.195E-12	-3.207E-09
[02:14:34] [INFO ]  -5.00E+02	-5.000E+02	-2.643E-06	-4.00E-01	-4.000E-01	-2.002E-09	3.882E-12	-2.046E-09
[02:15:09] [INFO ]  -5.00E+02	-5.000E+02	-2.640E-06	-2.00E-01	-2.000E-01	-1.054E-09	4.434E-12	-1.092E-09
[02:15:44] [INFO ]  -5.00E+02	-5.000E+02	-2.626E-06	-2.22E-16	2.353E-05	-9.349E-11	3.588E-12	7.754E-11
[02:16:19] [INFO ]  -5.00E+02	-5.000E+02	-2.604E-06	2.00E-01	2.000E-01	8.635E-10	4.551E-12	1.103E-09
[02:16:54] [INFO ]  -5.00E+02	-5.000E+02	-2.566E-06	4.00E-01	4.000E-01	1.807E-09	3.768E-12	2.179E-09
[02:17:29] [INFO ]  -5.00E+02	-5.000E+02	-2.534E-06	6.00E-01	6.000E-01	2.745E-09	8.680E-12	3.320E-09
[02:18:04] [INFO ]  -5.00E+02	-5.000E+02	-2.499E-06	8.00E-01	8.000E-01	3.676E-09	3.618E-12	4.338E-09
[02:18:39] [INFO ]  -5.00E+02	-5.000E+02	-2.466E-06	1.00E+00	1.000E+00	4.580E-09	4.789E-12	5.338E-09
[02:19:23] [INFO ]  Saving output to file logs/Strip_182_m20C_70kGy/00_20231121_013253/iv_Strip_182_m20C_70kGy_Test_name_-500_V.dat
[02:19:23] [INFO ]  Elapsed time:
[02:19:23] [INFO ]  469.36856150627136
[02:20:39] [INFO ]  -6.00E+02	-6.000E+02	-3.859E-06	-1.00E+00	-1.000E+00	-3.745E-09	4.570E-12	-4.136E-09
[02:21:14] [INFO ]  -6.00E+02	-6.000E+02	-3.863E-06	-8.00E-01	-8.000E-01	-3.054E-09	3.978E-12	-3.371E-09
[02:21:49] [INFO ]  -6.00E+02	-6.000E+02	-3.896E-06	-6.00E-01	-6.000E-01	-2.343E-09	5.713E-12	-2.335E-09
[02:22:24] [INFO ]  -6.00E+02	-6.000E+02	-3.915E-06	-4.00E-01	-4.000E-01	-1.626E-09	9.387E-12	-1.545E-09
[02:22:59] [INFO ]  -6.00E+02	-6.000E+02	-3.954E-06	-2.00E-01	-2.000E-01	-8.687E-10	7.073E-12	-7.769E-10
[02:23:34] [INFO ]  -6.00E+02	-6.000E+02	-3.968E-06	-2.22E-16	2.188E-05	-9.419E-11	3.236E-12	1.384E-10
[02:24:09] [INFO ]  -6.00E+02	-6.000E+02	-4.009E-06	2.00E-01	2.000E-01	7.152E-10	3.353E-12	1.020E-09
[02:24:44] [INFO ]  -6.00E+02	-6.000E+02	-4.045E-06	4.00E-01	4.000E-01	1.538E-09	3.865E-12	1.954E-09
[02:25:19] [INFO ]  -6.00E+02	-6.000E+02	-4.056E-06	6.00E-01	6.000E-01	2.394E-09	5.758E-12	2.855E-09
[02:25:54] [INFO ]  -6.00E+02	-6.000E+02	-4.060E-06	8.00E-01	8.000E-01	3.250E-09	1.115E-11	3.859E-09
[02:26:29] [INFO ]  -6.00E+02	-6.000E+02	-4.056E-06	1.00E+00	1.000E+00	4.137E-09	1.091E-11	4.879E-09
[02:27:12] [INFO ]  Saving output to file logs/Strip_182_m20C_70kGy/00_20231121_013253/iv_Strip_182_m20C_70kGy_Test_name_-600_V.dat
[02:27:13] [INFO ]  Elapsed time:
[02:27:13] [INFO ]  469.5117335319519
[02:28:28] [INFO ]  -7.00E+02	-7.000E+02	-5.488E-06	-1.00E+00	-1.000E+00	-3.327E-09	5.641E-12	-3.711E-09
[02:29:03] [INFO ]  -7.00E+02	-7.000E+02	-5.381E-06	-8.00E-01	-8.000E-01	-2.656E-09	4.585E-12	-2.826E-09
[02:29:38] [INFO ]  -7.00E+02	-7.000E+02	-5.315E-06	-6.00E-01	-6.000E-01	-2.004E-09	3.915E-12	-2.097E-09
[02:30:13] [INFO ]  -7.00E+02	-7.000E+02	-5.219E-06	-4.00E-01	-4.000E-01	-1.349E-09	4.314E-12	-1.348E-09
[02:30:48] [INFO ]  -7.00E+02	-7.000E+02	-5.179E-06	-2.00E-01	-2.000E-01	-7.296E-10	5.930E-12	-6.224E-10
[02:31:23] [INFO ]  -7.00E+02	-7.000E+02	-5.149E-06	-2.22E-16	2.287E-05	-9.412E-11	7.509E-12	4.918E-11
[02:31:58] [INFO ]  -7.00E+02	-7.000E+02	-5.146E-06	2.00E-01	2.000E-01	5.404E-10	6.195E-12	7.569E-10
[02:32:33] [INFO ]  -7.00E+02	-7.000E+02	-5.166E-06	4.00E-01	4.000E-01	1.197E-09	3.969E-12	1.494E-09
[02:33:08] [INFO ]  -7.00E+02	-7.000E+02	-5.222E-06	6.00E-01	6.000E-01	1.876E-09	8.388E-12	2.209E-09
[02:33:43] [INFO ]  -7.00E+02	-7.000E+02	-5.247E-06	8.00E-01	8.000E-01	2.565E-09	7.043E-12	3.223E-09
[02:34:18] [INFO ]  -7.00E+02	-7.000E+02	-5.261E-06	1.00E+00	1.000E+00	3.294E-09	3.259E-12	3.888E-09
[02:35:02] [INFO ]  Saving output to file logs/Strip_182_m20C_70kGy/00_20231121_013253/iv_Strip_182_m20C_70kGy_Test_name_-700_V.dat
[02:35:02] [INFO ]  Elapsed time:
[02:35:02] [INFO ]  469.439640045166
[02:36:17] [INFO ]  -8.00E+02	-8.000E+02	-7.160E-06	-1.00E+00	-1.000E+00	-2.899E-09	7.279E-12	-3.031E-09
[02:36:53] [INFO ]  -8.00E+02	-8.000E+02	-7.168E-06	-8.00E-01	-8.000E-01	-2.369E-09	6.228E-12	-2.458E-09
[02:37:28] [INFO ]  -8.00E+02	-8.000E+02	-7.165E-06	-6.00E-01	-6.000E-01	-1.818E-09	4.410E-12	-1.813E-09
[02:38:03] [INFO ]  -8.00E+02	-8.000E+02	-7.116E-06	-4.00E-01	-4.000E-01	-1.246E-09	6.404E-12	-1.185E-09
[02:38:38] [INFO ]  -8.00E+02	-8.000E+02	-7.048E-06	-2.00E-01	-2.000E-01	-6.767E-10	5.190E-12	-6.344E-10
[02:39:13] [INFO ]  -8.00E+02	-8.000E+02	-6.954E-06	-2.22E-16	2.609E-05	-9.911E-11	6.219E-12	2.327E-10
[02:39:48] [INFO ]  -8.00E+02	-8.000E+02	-6.854E-06	2.00E-01	2.000E-01	4.661E-10	5.679E-12	8.084E-10
[02:40:23] [INFO ]  -8.00E+02	-8.000E+02	-6.787E-06	4.00E-01	4.000E-01	1.018E-09	1.155E-11	1.393E-09
[02:40:58] [INFO ]  -8.00E+02	-8.000E+02	-6.680E-06	6.00E-01	6.000E-01	1.570E-09	6.302E-12	1.957E-09
[02:41:33] [INFO ]  -8.00E+02	-8.000E+02	-6.584E-06	8.00E-01	8.000E-01	2.108E-09	4.922E-12	2.620E-09
[02:42:08] [INFO ]  -8.00E+02	-8.000E+02	-6.540E-06	1.00E+00	1.000E+00	2.667E-09	7.263E-12	3.181E-09
[02:42:51] [INFO ]  Saving output to file logs/Strip_182_m20C_70kGy/00_20231121_013253/iv_Strip_182_m20C_70kGy_Test_name_-800_V.dat
[02:42:52] [INFO ]  Elapsed time:
[02:42:52] [INFO ]  469.52124190330505
[02:44:07] [INFO ]  -9.00E+02	-8.999E+02	-8.490E-06	-1.00E+00	-1.000E+00	-2.345E-09	5.546E-12	-2.394E-09
[02:44:42] [INFO ]  -9.00E+02	-8.999E+02	-8.518E-06	-8.00E-01	-8.000E-01	-1.929E-09	7.614E-12	-1.828E-09
[02:45:17] [INFO ]  -9.00E+02	-8.999E+02	-8.530E-06	-6.00E-01	-6.000E-01	-1.490E-09	8.330E-12	-1.578E-09
[02:45:52] [INFO ]  -9.00E+02	-8.999E+02	-8.528E-06	-4.00E-01	-4.000E-01	-1.046E-09	7.127E-12	-9.784E-10
[02:46:27] [INFO ]  -9.00E+02	-8.999E+02	-8.592E-06	-2.00E-01	-2.000E-01	-5.863E-10	5.930E-12	-3.399E-10
[02:47:02] [INFO ]  -9.00E+02	-8.999E+02	-8.620E-06	-2.22E-16	2.609E-05	-1.160E-10	1.037E-11	5.896E-11
[02:47:37] [INFO ]  -9.00E+02	-8.999E+02	-8.591E-06	2.00E-01	2.000E-01	3.710E-10	6.466E-12	6.780E-10
[02:48:12] [INFO ]  -9.00E+02	-8.999E+02	-8.582E-06	4.00E-01	4.000E-01	8.683E-10	1.107E-11	1.215E-09
[02:48:47] [INFO ]  -9.00E+02	-8.999E+02	-8.539E-06	6.00E-01	6.000E-01	1.362E-09	1.053E-11	1.794E-09
[02:49:22] [INFO ]  -9.00E+02	-8.999E+02	-8.423E-06	8.00E-01	8.000E-01	1.848E-09	1.562E-11	2.299E-09
[02:49:57] [INFO ]  -9.00E+02	-8.999E+02	-8.341E-06	1.00E+00	1.000E+00	2.315E-09	1.122E-11	2.898E-09
[02:50:41] [INFO ]  Saving output to file logs/Strip_182_m20C_70kGy/00_20231121_013253/iv_Strip_182_m20C_70kGy_Test_name_-900_V.dat
[02:50:41] [INFO ]  Elapsed time:
[02:50:41] [INFO ]  469.48248958587646
[02:52:35] [INFO ]  Reseting device.
[02:52:35] [INFO ]  Saving output to file logs/Strip_182_m20C_70kGy/00_20231121_013253/rv_Strip_182_m20C_70kGy_Test_name.dat
[02:52:35] [INFO ]  

 IV SCAN FINISHED


[02:52:35] [INFO ]  	
[02:52:35] [INFO ]  Cleaning up.
[02:52:35] [INFO ]  	
[02:52:35] [INFO ]  	
